{
  "AAL": {
    "title": "Attribution Assurance Licenses",
    "url": "https://opensource.org/licenses/AAL"
  },
  "AFL-3.0": {
    "title": "Academic Free License 3.0",
    "url": "https://opensource.org/licenses/AFL-3.0"
  },
  "AGPL-3.0": {
    "title": "GNU Affero General Public License v3",
    "url": "https://opensource.org/licenses/AGPL-3.0"
  },
  "APL-1.0": {
    "title": "Adaptive Public License 1.0",
    "url": "https://opensource.org/licenses/APL-1.0"
  },
  "APSL-2.0": {
    "title": "Apple Public Source License 2.0",
    "url": "https://opensource.org/licenses/APSL-2.0"
  },
  "Against-DRM": {
    "title": "Against DRM",
    "url": "https://opendefinition.org/licenses/against-drm"
  },
  "Apache-1.1": {
    "title": "Apache Software License 1.1",
    "url": "https://opensource.org/licenses/Apache-1.1"
  },
  "Apache-2.0": {
    "title": "Apache Software License 2.0",
    "url": "https://opensource.org/licenses/Apache-2.0"
  },
  "Artistic-2.0": {
    "title": "Artistic License 2.0",
    "url": "https://opensource.org/licenses/Artistic-2.0"
  },
  "BSD-2-Clause": {
    "title": "BSD 2-Clause \"Simplified\" or \"FreeBSD\" License (BSD-2-Clause)",
    "url": "https://opensource.org/licenses/BSD-2-Clause"
  },
  "BSD-3-Clause": {
    "title": "BSD 3-Clause \"New\" or \"Revised\" License (BSD-3-Clause)",
    "url": "https://opensource.org/licenses/BSD-3-Clause"
  },
  "BSL-1.0": {
    "title": "Boost Software License 1.0",
    "url": "https://opensource.org/licenses/BSL-1.0"
  },
  "BitTorrent-1.1": {
    "title": "BitTorrent Open Source License 1.1",
    "url": "https://spdx.org/licenses/BitTorrent-1.1"
  },
  "CATOSL-1.1": {
    "title": "Computer Associates Trusted Open Source License 1.1 (CATOSL-1.1)",
    "url": "https://opensource.org/licenses/CATOSL-1.1"
  },
  "CC-BY-4.0": {
    "title": "Creative Commons Attribution 4.0",
    "url": "https://creativecommons.org/licenses/by/4.0/"
  },
  "CC-BY-NC-4.0": {
    "title": "Creative Commons Attribution-NonCommercial 4.0",
    "url": "https://creativecommons.org/licenses/by-nc/4.0/"
  },
  "CC-BY-SA-4.0": {
    "title": "Creative Commons Attribution Share-Alike 4.0",
    "url": "https://creativecommons.org/licenses/by-sa/4.0/"
  },
  "CC0-1.0": {
    "title": "CC0 1.0",
    "url": "https://creativecommons.org/publicdomain/zero/1.0/"
  },
  "CDDL-1.0": {
    "title": "Common Development and Distribution License 1.0",
    "url": "https://opensource.org/licenses/CDDL-1.0"
  },
  "CECILL-2.1": {
    "title": "CeCILL License 2.1",
    "url": "https://opensource.org/licenses/CECILL-2.1"
  },
  "CNRI-Python": {
    "title": "CNRI Python License",
    "url": "https://opensource.org/licenses/CNRI-Python"
  },
  "CPAL-1.0": {
    "title": "Common Public Attribution License 1.0",
    "url": "https://opensource.org/licenses/CPAL-1.0"
  },
  "CUA-OPL-1.0": {
    "title": "CUA Office Public License 1.0",
    "url": "https://opensource.org/licenses/CUA-OPL-1.0"
  },
  "DSL": {
    "title": "Design Science License",
    "url": "https://opendefinition.org/licenses/dsl"
  },
  "ECL-2.0": {
    "title": "Educational Community License 2.0",
    "url": "https://opensource.org/licenses/ECL-2.0"
  },
  "EFL-2.0": {
    "title": "Eiffel Forum License 2.0",
    "url": "https://opensource.org/licenses/EFL-2.0"
  },
  "EPL-1.0": {
    "title": "Eclipse Public License 1.0",
    "url": "https://opensource.org/licenses/EPL-1.0"
  },
  "EPL-2.0": {
    "title": "Eclipse Public License 2.0",
    "url": "https://opensource.org/licenses/EPL-2.0"
  },
  "EUDatagrid": {
    "title": "EU DataGrid Software License",
    "url": "https://opensource.org/licenses/EUDatagrid"
  },
  "EUPL-1.1": {
    "title": "European Union Public License 1.1",
    "url": "https://opensource.org/licenses/EUPL-1.1"
  },
  "Entessa": {
    "title": "Entessa Public License",
    "url": "https://opensource.org/licenses/Entessa"
  },
  "FAL-1.3": {
    "title": "Free Art License 1.3",
    "url": "https://opendefinition.org/licenses/fal"
  },
  "Fair": {
    "title": "Fair License",
    "url": "https://opensource.org/licenses/Fair"
  },
  "Frameworx-1.0": {
    "title": "Frameworx License 1.0",
    "url": "https://opensource.org/licenses/Frameworx-1.0"
  },
  "GFDL-1.3-no-cover-texts-no-invariant-sections": {
    "title": "GNU Free Documentation License 1.3 with no cover texts and no invariant sections",
    "url": "https://opendefinition.org/licenses/gfdl"
  },
  "GPL-2.0": {
    "title": "GNU General Public License 2.0",
    "url": "https://opensource.org/licenses/GPL-2.0"
  },
  "GPL-3.0": {
    "title": "GNU General Public License 3.0",
    "url": "https://opensource.org/licenses/GPL-3.0"
  },
  "HPND": {
    "title": "Historical Permission Notice and Disclaimer",
    "url": "https://opensource.org/licenses/HPND"
  },
  "IPA": {
    "title": "IPA Font License",
    "url": "https://opensource.org/licenses/IPA"
  },
  "IPL-1.0": {
    "title": "IBM Public License 1.0",
    "url": "https://opensource.org/licenses/IPL-1.0"
  },
  "ISC": {
    "title": "ISC License",
    "url": "https://opensource.org/licenses/ISC"
  },
  "Intel": {
    "title": "Intel Open Source License",
    "url": "https://opensource.org/licenses/Intel"
  },
  "LGPL-2.1": {
    "title": "GNU Lesser General Public License 2.1",
    "url": "https://opensource.org/licenses/LGPL-2.1"
  },
  "LGPL-3.0": {
    "title": "GNU Lesser General Public License 3.0",
    "url": "https://opensource.org/licenses/LGPL-3.0"
  },
  "LO-FR-2.0": {
    "title": "Open License 2.0",
    "url": "https://www.etalab.gouv.fr/licence-ouverte-open-licence"
  },
  "LPL-1.0": {
    "title": "Lucent Public License (\"Plan9\") 1.0",
    "url": "https://opensource.org/licenses/LPL-1.0"
  },
  "LPL-1.02": {
    "title": "Lucent Public License 1.02",
    "url": "https://opensource.org/licenses/LPL-1.02"
  },
  "LPPL-1.3c": {
    "title": "LaTeX Project Public License 1.3c",
    "url": "https://opensource.org/licenses/LPPL-1.3c"
  },
  "MIT": {
    "title": "MIT License",
    "url": "https://opensource.org/licenses/MIT"
  },
  "MPL-1.0": {
    "title": "Mozilla Public License 1.0",
    "url": "https://opensource.org/licenses/MPL-1.0"
  },
  "MPL-1.1": {
    "title": "Mozilla Public License 1.1",
    "url": "https://opensource.org/licenses/MPL-1.1"
  },
  "MPL-2.0": {
    "title": "Mozilla Public License 2.0",
    "url": "https://opensource.org/licenses/MPL-2.0"
  },
  "MS-PL": {
    "title": "Microsoft Public License",
    "url": "https://opensource.org/licenses/MS-PL"
  },
  "MS-RL": {
    "title": "Microsoft Reciprocal License",
    "url": "https://opensource.org/licenses/MS-RL"
  },
  "MirOS": {
    "title": "MirOS Licence",
    "url": "https://opensource.org/licenses/MirOS"
  },
  "Motosoto": {
    "title": "Motosoto License",
    "url": "https://opensource.org/licenses/Motosoto"
  },
  "Multics": {
    "title": "Multics License",
    "url": "https://opensource.org/licenses/Multics"
  },
  "NASA-1.3": {
    "title": "NASA Open Source Agreement 1.3",
    "url": "https://opensource.org/licenses/NASA-1.3"
  },
  "NCSA": {
    "title": "University of Illinois/NCSA Open Source License",
    "url": "https://opensource.org/licenses/NCSA"
  },
  "NGPL": {
    "title": "Nethack General Public License",
    "url": "https://opensource.org/licenses/NGPL"
  },
  "NPOSL-3.0": {
    "title": "Non-Profit Open Software License 3.0",
    "url": "https://opensource.org/licenses/NPOSL-3.0"
  },
  "NTP": {
    "title": "NTP License",
    "url": "https://opensource.org/licenses/NTP"
  },
  "Naumen": {
    "title": "Naumen Public License",
    "url": "https://opensource.org/licenses/Naumen"
  },
  "Nokia": {
    "title": "Nokia Open Source License",
    "url": "https://opensource.org/licenses/Nokia"
  },
  "OCLC-2.0": {
    "title": "OCLC Research Public License 2.0",
    "url": "https://opensource.org/licenses/OCLC-2.0"
  },
  "ODC-BY-1.0": {
    "title": "Open Data Commons Attribution License 1.0",
    "url": "https://opendefinition.org/licenses/odc-by"
  },
  "ODbL-1.0": {
    "title": "Open Data Commons Open Database License 1.0",
    "url": "https://opendefinition.org/licenses/odc-odbl"
  },
  "OFL-1.1": {
    "title": "Open Font License 1.1",
    "url": "https://opensource.org/licenses/OFL-1.1"
  },
  "OGL-Canada-2.0": {
    "title": "Open Government License 2.0 (Canada)",
    "url": "https://open.canada.ca/en/open-government-licence-canada"
  },
  "OGL-UK-1.0": {
    "title": "Open Government Licence 1.0 (United Kingdom)",
    "url": "https://www.nationalarchives.gov.uk/doc/open-government-licence/version/1/"
  },
  "OGL-UK-2.0": {
    "title": "Open Government Licence 2.0 (United Kingdom)",
    "url": "https://www.nationalarchives.gov.uk/doc/open-government-licence/version/2/"
  },
  "OGL-UK-3.0": {
    "title": "Open Government Licence 3.0 (United Kingdom)",
    "url": "https://www.nationalarchives.gov.uk/doc/open-government-licence/version/3/"
  },
  "OGTSL": {
    "title": "Open Group Test Suite License",
    "url": "https://opensource.org/licenses/OGTSL"
  },
  "OSL-3.0": {
    "title": "Open Software License 3.0",
    "url": "https://opensource.org/licenses/OSL-3.0"
  },
  "PDDL-1.0": {
    "title": "Open Data Commons Public Domain Dedication and Licence 1.0",
    "url": "https://opendefinition.org/licenses/odc-pddl"
  },
  "PHP-3.0": {
    "title": "PHP License 3.0",
    "url": "https://opensource.org/licenses/PHP-3.0"
  },
  "PostgreSQL": {
    "title": "PostgreSQL License",
    "url": "https://opensource.org/licenses/PostgreSQL"
  },
  "Python-2.0": {
    "title": "Python License 2.0",
    "url": "https://opensource.org/licenses/Python-2.0"
  },
  "QPL-1.0": {
    "title": "Q Public License 1.0",
    "url": "https://opensource.org/licenses/QPL-1.0"
  },
  "RPL-1.5": {
    "title": "Reciprocal Public License 1.5",
    "url": "https://opensource.org/licenses/RPL-1.5"
  },
  "RPSL-1.0": {
    "title": "RealNetworks Public Source License 1.0",
    "url": "https://opensource.org/licenses/RPSL-1.0"
  },
  "RSCPL": {
    "title": "Ricoh Source Code Public License",
    "url": "https://opensource.org/licenses/RSCPL"
  },
  "SISSL": {
    "title": "Sun Industry Standards Source License 1.1",
    "url": "https://opensource.org/licenses/SISSL"
  },
  "SPL-1.0": {
    "title": "Sun Public License 1.0",
    "url": "https://opensource.org/licenses/SPL-1.0"
  },
  "SimPL-2.0": {
    "title": "Simple Public License 2.0",
    "url": "https://opensource.org/licenses/SimPL-2.0"
  },
  "Sleepycat": {
    "title": "Sleepycat License",
    "url": "https://opensource.org/licenses/Sleepycat"
  },
  "Talis": {
    "title": "Talis Community License",
    "url": "https://opendefinition.org/licenses/tcl"
  },
  "Unlicense": {
    "title": "Unlicense",
    "url": "https://unlicense.org/"
  },
  "VSL-1.0": {
    "title": "Vovida Software License 1.0",
    "url": "https://opensource.org/licenses/VSL-1.0"
  },
  "W3C": {
    "title": "W3C License",
    "url": "https://opensource.org/licenses/W3C"
  },
  "WXwindows": {
    "title": "wxWindows Library License",
    "url": "https://opensource.org/licenses/WXwindows"
  },
  "Watcom-1.0": {
    "title": "Sybase Open Watcom Public License 1.0",
    "url": "https://opensource.org/licenses/Watcom-1.0"
  },
  "Xnet": {
    "title": "X.Net License",
    "url": "https://opensource.org/licenses/Xnet"
  },
  "ZPL-2.0": {
    "title": "Zope Public License 2.0",
    "url": "https://opensource.org/licenses/ZPL-2.0"
  },
  "Zlib": {
    "title": "zlib/libpng license",
    "url": "https://opensource.org/licenses/Zlib"
  },
  "dli-model-use": {
    "title": "Statistics Canada: Data Liberation Initiative (DLI) - Model Data Use Licence",
    "url": "http://data.library.ubc.ca/datalib/geographic/DMTI/license.html"
  },
  "geogratis": {
    "title": "Geogratis",
    "url": "http://geogratis.gc.ca/geogratis/licenceGG"
  },
  "hesa-withrights": {
    "title": "Higher Education Statistics Agency Copyright with data.gov.uk rights",
    "url": "https://web.archive.org/web/20131009082944/http://www.hesa.ac.uk/index.php?option=com_content&task=view&id=2619&Itemid=209"
  },
  "localauth-withrights": {
    "title": "Local Authority Copyright with data.gov.uk rights",
    "url": null
  },
  "met-office-cp": {
    "title": "Met Office UK Climate Projections Licence Agreement",
    "url": "https://www.metoffice.gov.uk/climatechange/science/monitoring/ukcp09/UKCIP08_license_agreement_130709.pdf"
  },
  "mitre": {
    "title": "MITRE Collaborative Virtual Workspace License (CVW License)",
    "url": "https://opensource.org/licenses/CVW"
  },
  "notspecified": {
    "title": "License Not Specified",
    "url": null
  },
  "other-at": {
    "title": "Other (Attribution)",
    "url": null
  },
  "other-closed": {
    "title": "Other (Not Open)",
    "url": null
  },
  "other-nc": {
    "title": "Other (Non-Commercial)",
    "url": null
  },
  "other-open": {
    "title": "Other (Open)",
    "url": null
  },
  "other-pd": {
    "title": "Other (Public Domain)",
    "url": null
  },
  "ukclickusepsi": {
    "title": "UK Click Use PSI",
    "url": null
  },
  "ukcrown": {
    "title": "UK Crown Copyright",
    "url": null
  },
  "ukcrown-withrights": {
    "title": "UK Crown Copyright with data.gov.uk rights",
    "url": null
  },
  "ukpsi": {
    "title": "UK PSI Public Sector Information",
    "url": "https://opendefinition.org/licenses/ukpsi"
  }
}
